Simulated droprates,0,1,5,10,25
0,2,2,2,2,2
1,2,2,2,2,4
2,2,2,2,2,2
3,2,2,2,2,2
4,2,2,2,2,8
5,2,2,2,2,2
6,2,2,2,4,2
7,2,2,2,4,2
8,2,2,2,2,2
9,2,2,2,2,6
10,2,2,4,2,4
11,2,2,2,2,2
12,2,2,2,4,4
13,2,2,2,2,2
14,2,2,2,2,12
15,2,2,2,2,8
16,2,2,2,4,2
17,2,2,2,6,2
18,2,2,2,2,12
19,2,2,2,8,2
20,2,2,2,4,6
21,2,2,2,4,2
22,2,2,2,2,2
23,2,2,2,2,2
24,2,2,2,2,2
25,2,4,2,2,4
26,2,2,2,2,2
27,2,2,4,6,12
28,2,2,2,2,6
29,2,2,2,2,2
30,2,2,2,2,2
31,2,2,2,2,4
32,2,2,2,2,2
33,2,2,2,6,4
34,2,2,2,2,2
35,2,2,2,2,10
36,2,2,2,2,2
37,2,2,2,2,2
38,2,2,4,2,2
39,2,2,2,2,4
40,2,2,2,2,2
41,2,2,2,2,2
42,2,2,2,2,4
43,2,2,2,2,2
44,2,2,2,2,2
45,2,2,2,8,2
46,2,2,2,2,2
47,2,2,2,2,2
48,2,2,2,2,4
49,2,2,2,4,2
50,2,2,2,2,2
51,2,2,2,2,2
52,2,2,2,4,4
53,2,2,2,4,8
54,2,2,2,2,12
55,2,2,2,2,2
56,2,2,2,2,6
57,2,2,4,4,2
58,2,2,2,2,2
59,2,2,2,2,2
60,2,2,2,2,8
61,2,2,4,2,4
62,2,2,2,2,2
63,2,2,2,6,6
64,2,2,2,2,2
65,2,2,2,2,2
66,2,2,2,2,2
67,2,2,2,2,4
68,2,2,2,2,8
69,2,2,2,2,4
70,2,2,4,2,2
71,2,2,2,2,2
72,2,2,2,2,6
73,2,2,2,2,4
74,2,2,4,4,6
75,2,2,2,2,2
76,2,2,2,2,4
77,2,2,2,2,8
78,2,2,2,4,2
79,2,2,2,2,2
80,2,2,2,2,8
81,2,2,2,2,4
82,2,2,2,2,4
83,2,2,2,2,2
84,2,2,4,4,2
85,2,2,2,2,2
86,2,2,2,2,4
87,2,2,2,2,2
88,2,2,2,2,2
89,2,2,4,2,8
90,2,2,2,2,4
91,2,2,2,2,4
92,2,2,2,4,2
93,2,2,2,2,4
94,2,2,2,4,4
95,2,2,2,2,2
96,2,2,2,2,2
97,2,2,2,2,8
98,2,2,4,2,6
99,2,2,2,2,2
100,2,2,2,2,2
101,2,2,2,2,2
102,2,2,2,2,2
103,2,2,2,2,2
104,2,2,2,2,2
105,2,2,2,2,10
106,2,2,2,6,6
107,2,2,2,2,2
108,2,2,2,2,2
109,2,2,2,2,2
110,2,2,2,2,2
111,2,2,2,2,8
112,2,2,2,6,2
113,2,2,2,2,4
114,2,2,4,2,2
115,2,2,2,2,8
116,2,2,2,2,10
117,2,2,2,2,2
118,2,2,2,2,2
119,2,4,2,2,2
120,2,2,2,2,8
121,2,2,2,2,4
122,2,2,2,4,6
123,2,2,2,6,6
124,2,2,2,2,2
125,2,2,2,2,2
126,2,2,2,2,2
127,2,2,2,4,2
128,2,2,2,2,10
129,2,2,2,2,6
130,2,2,4,2,8
131,2,2,2,2,2
132,2,2,2,2,4
133,2,2,2,2,2
134,2,2,2,2,4
135,2,2,2,4,2
136,2,2,2,2,2
137,2,2,2,2,4
138,2,2,2,2,2
139,2,2,2,2,2
140,2,2,2,2,4
141,2,2,2,2,2
142,2,2,2,2,2
143,2,2,2,2,2
144,2,2,2,2,2
145,2,2,4,2,2
146,2,2,2,2,12
147,2,2,2,2,2
148,2,2,2,2,4
149,2,2,2,2,2
150,2,2,2,2,2
151,2,2,2,2,2
152,2,2,2,4,12
153,2,2,2,4,4
154,2,2,2,4,2
155,2,2,2,2,2
156,2,2,2,2,4
157,2,2,2,2,2
158,2,2,2,2,4
159,2,2,2,2,6
160,2,2,4,2,6
161,2,2,6,2,2
162,2,2,4,2,2
163,2,2,2,2,2
164,2,2,4,2,6
165,2,2,2,4,2
166,2,2,2,2,6
167,2,2,2,2,2
168,2,2,2,2,2
169,2,2,2,4,4
170,2,2,2,2,2
171,2,2,2,2,2
172,2,2,4,2,4
173,2,2,2,4,2
174,2,2,4,2,4
175,2,2,2,4,2
176,2,2,2,2,2
177,2,2,4,2,10
178,2,2,2,2,4
179,2,2,4,2,6
180,2,2,2,4,2
181,2,2,2,2,2
182,2,2,2,2,6
183,2,2,2,2,2
184,2,2,2,4,2
185,2,2,2,2,4
186,2,2,2,2,2
187,2,2,2,2,2
188,2,2,2,2,2
189,2,2,2,2,4
190,2,2,2,2,8
191,2,2,2,2,2
192,2,2,2,2,2
193,2,2,2,2,2
194,2,2,2,2,2
195,2,2,2,2,8
196,2,2,2,2,2
197,2,2,2,4,4
198,2,2,2,2,2
199,2,2,2,2,4
200,2,2,2,2,2
201,2,2,2,2,2
202,2,2,2,2,2
203,2,2,4,4,2
204,2,2,2,2,2
205,2,2,4,2,2
206,2,2,2,4,4
207,2,2,2,2,2
208,2,2,2,2,10
209,2,2,2,2,2
210,2,2,2,4,2
211,2,2,2,2,4
212,2,2,2,2,2
213,2,2,2,2,2
214,2,2,2,2,6
215,2,2,6,2,2
216,2,2,2,2,4
217,2,2,2,2,2
218,2,2,4,2,4
219,2,2,2,2,2
220,2,2,2,2,2
221,2,2,2,2,2
222,2,2,2,2,2
223,2,2,2,2,6
224,2,2,2,2,2
225,2,2,2,2,4
226,2,2,2,2,2
227,2,2,2,2,6
228,2,2,2,2,6
229,2,2,2,2,2
230,2,2,2,2,2
231,2,2,2,2,2
232,2,2,2,2,2
233,2,2,2,2,6
234,2,2,2,2,2
235,2,2,2,2,2
236,2,2,2,2,2
237,2,2,4,2,2
238,2,2,2,2,8
239,2,2,2,2,4
240,2,2,2,2,2
241,2,2,2,2,6
242,2,2,2,6,4
243,2,2,2,2,2
244,2,2,2,4,8
245,2,2,2,10,2
246,2,2,2,2,4
247,2,2,2,2,4
248,2,2,2,2,4
249,2,2,2,2,4
250,2,2,2,2,2
251,2,2,2,2,2
252,2,2,2,2,6
253,2,2,2,2,2
254,2,2,4,6,2
255,2,2,2,6,6
256,2,2,2,2,2
257,2,2,2,2,6
258,2,2,2,2,6
259,2,2,2,2,2
260,2,2,2,2,2
261,2,2,2,2,2
262,2,2,2,2,2
263,2,2,2,2,2
264,2,2,2,2,4
265,2,2,2,2,4
266,2,2,2,2,2
267,2,2,4,2,2
268,2,2,2,4,2
269,2,2,2,2,2
270,2,2,2,4,2
271,2,2,2,4,2
272,2,2,2,2,2
273,2,2,2,2,2
274,2,2,2,2,2
275,2,2,2,2,14
276,2,2,2,2,2
277,2,2,2,2,12
278,2,2,2,2,6
279,2,2,2,4,8
280,2,2,4,2,2
281,2,2,2,2,2
282,2,2,2,2,2
283,2,2,2,2,2
284,2,2,2,2,2
285,2,2,2,2,2
286,2,2,2,2,2
287,2,2,2,2,2
288,2,2,2,2,2
289,2,2,2,2,2
290,2,2,2,2,2
291,2,4,2,2,2
292,2,2,2,2,2
293,2,2,2,2,4
294,2,2,2,2,2
295,2,2,2,2,2
296,2,2,2,2,2
297,2,2,2,2,6
298,2,4,2,4,2
299,2,2,2,2,6
300,2,2,2,4,6
301,2,2,2,4,2
302,2,2,2,2,2
303,2,2,2,2,2
304,2,2,2,2,2
305,2,2,2,2,4
306,2,2,2,2,2
307,2,2,2,2,6
308,2,2,2,2,4
309,2,2,2,2,2
310,2,2,2,2,4
311,2,2,4,2,2
312,2,2,2,2,6
313,2,2,2,2,2
314,2,2,2,4,2
315,2,2,2,2,4
316,2,2,2,2,2
317,2,2,2,2,2
318,2,2,2,2,12
319,2,2,2,2,2
320,2,2,2,2,2
321,2,2,2,2,8
322,2,2,2,2,2
323,2,2,2,2,6
324,2,2,2,2,2
325,2,2,2,2,2
326,2,2,2,2,2
327,2,2,2,2,2
328,2,2,2,2,8
329,2,2,2,2,2
330,2,2,2,2,10
331,2,2,2,2,4
332,2,2,2,2,4
333,2,2,2,2,4
334,2,2,2,2,6
335,2,2,2,2,4
336,2,2,4,2,4
337,2,2,2,2,2
338,2,2,2,2,2
339,2,2,2,2,8
340,2,2,6,2,2
341,2,2,2,2,2
342,2,2,2,2,2
343,2,2,2,2,2
344,2,2,2,2,4
345,2,2,4,2,4
346,2,2,2,2,2
347,2,2,2,2,2
348,2,2,4,2,10
349,2,2,2,2,2
350,2,2,2,2,6
351,2,2,2,4,2
352,2,2,2,4,2
353,2,2,2,2,10
354,2,2,2,2,4
355,2,2,2,2,4
356,2,2,2,2,2
357,2,2,2,2,6
358,2,2,4,2,4
359,2,2,2,6,2
360,2,2,2,2,4
361,2,2,2,2,2
362,2,2,2,2,2
363,2,2,2,2,2
364,2,2,4,2,2
365,2,2,2,4,4
366,2,2,2,2,2
367,2,2,2,4,2
368,2,2,2,4,4
369,2,2,2,2,6
370,2,2,2,2,2
371,2,2,2,2,8
372,2,2,2,2,4
373,2,2,2,2,4
374,2,2,2,2,6
375,2,2,6,2,4
376,2,2,2,2,2
377,2,2,2,2,4
378,2,2,2,2,6
379,2,2,2,2,6
380,2,2,2,2,4
381,2,2,2,2,2
382,2,2,2,2,4
383,2,2,2,4,2
384,2,2,2,2,16
385,2,2,2,2,2
386,2,2,2,2,4
387,2,2,2,2,2
388,2,2,2,6,4
389,2,2,2,2,4
390,2,2,2,2,4
391,2,2,2,2,2
392,2,2,2,2,2
393,2,2,2,2,2
394,2,4,2,2,2
395,2,2,2,2,4
396,2,2,2,2,4
397,2,2,2,2,4
398,2,2,2,2,2
399,2,2,2,2,2
400,2,2,2,2,2
401,2,2,2,2,10
402,2,2,2,2,2
403,2,2,2,2,4
404,2,2,2,4,4
405,2,2,2,2,6
406,2,2,2,2,14
407,2,2,2,2,2
408,2,2,2,2,2
409,2,2,2,4,2
410,2,2,2,2,2
411,2,2,2,2,6
412,2,2,2,6,10
413,2,2,2,2,4
414,2,2,2,2,4
415,2,2,2,4,2
416,2,2,2,2,4
417,2,2,2,4,2
418,2,2,2,2,6
419,2,2,2,2,2
420,2,2,4,2,10
421,2,2,2,2,8
422,2,2,2,2,2
423,2,2,2,2,10
424,2,2,2,2,4
425,2,2,2,2,2
426,2,2,2,2,4
427,2,2,2,2,4
428,2,2,2,4,4
429,2,2,2,2,2
430,2,2,2,6,6
431,2,2,2,2,2
432,2,2,2,2,4
433,2,2,2,2,4
434,2,2,2,2,4
435,2,2,2,2,2
436,2,2,2,2,6
437,2,2,2,2,4
438,2,2,2,4,2
439,2,2,2,4,2
440,2,2,2,2,4
441,2,2,2,8,4
442,2,2,2,2,2
443,2,2,2,2,2
444,2,2,2,2,4
445,2,2,2,2,8
446,2,2,2,2,4
447,2,2,4,4,4
448,2,2,2,2,2
449,2,2,2,2,4
450,2,2,2,2,2
451,2,2,2,4,2
452,2,2,2,4,2
453,2,2,2,2,2
454,2,2,2,2,2
455,2,2,2,4,2
456,2,2,4,2,6
457,2,2,2,4,4
458,2,2,2,2,2
459,2,2,2,2,2
460,2,2,2,2,2
461,2,2,4,4,6
462,2,2,2,2,2
463,2,2,4,2,2
464,2,2,4,2,6
465,2,2,2,2,8
466,2,2,2,2,4
467,2,2,2,4,2
468,2,2,4,2,2
469,2,2,2,2,2
470,2,2,2,2,4
471,2,2,2,2,2
472,2,2,2,2,2
473,2,2,2,2,2
474,2,2,2,2,6
475,2,2,2,2,4
476,2,2,2,6,4
477,2,2,2,2,2
478,2,2,2,2,2
479,2,2,4,2,2
480,2,2,2,2,8
481,2,2,2,2,2
482,2,2,2,2,2
483,2,2,4,2,6
484,2,2,2,2,2
485,2,2,2,2,2
486,2,2,2,2,4
487,2,2,2,2,4
488,2,2,4,2,4
489,2,2,2,2,2
490,2,2,2,2,4
491,2,2,2,2,6
492,2,2,2,2,2
493,2,2,2,2,2
494,2,2,2,2,4
495,2,2,2,6,6
496,2,2,2,2,4
497,2,2,2,2,6
498,2,2,2,4,2
499,2,2,2,4,2
500,2,2,2,2,2
501,2,2,2,2,2
502,2,2,2,2,2
503,2,2,2,2,2
504,2,2,2,2,2
505,2,2,2,2,16
506,2,2,2,2,2
507,2,2,2,2,2
508,2,2,2,4,6
509,2,2,4,2,2
510,2,2,2,2,4
511,2,2,8,2,2
512,2,2,2,2,4
513,2,2,2,4,8
514,2,2,2,2,2
515,2,2,2,2,4
516,2,2,2,2,2
517,2,2,2,2,6
518,2,2,6,2,6
519,2,2,2,12,6
520,2,2,2,2,4
521,2,2,2,2,2
522,2,2,2,2,4
523,2,2,4,2,2
524,2,2,2,6,2
525,2,2,2,2,2
526,2,2,2,2,10
527,2,2,2,2,4
528,2,2,2,2,4
529,2,2,2,2,2
530,2,2,2,2,2
531,2,2,4,4,2
532,2,2,2,2,2
533,2,2,4,2,2
534,2,2,2,2,12
535,2,2,2,2,14
536,2,2,2,6,2
537,2,2,2,2,2
538,2,2,2,2,8
539,2,2,2,2,4
540,2,2,2,2,8
541,2,2,2,2,6
542,2,2,2,2,2
543,2,2,2,2,4
544,2,2,2,2,2
545,2,2,2,2,2
546,2,2,2,2,2
547,2,2,2,2,4
548,2,2,2,2,2
549,2,2,2,2,2
550,2,2,2,2,2
551,2,2,2,2,2
552,2,2,2,2,8
553,2,2,2,2,6
554,2,2,2,2,4
555,2,2,2,4,2
556,2,2,2,2,2
557,2,2,2,2,2
558,2,2,2,4,4
559,2,2,2,4,2
560,2,2,2,4,2
561,2,4,2,2,2
562,2,2,2,6,2
563,2,2,2,4,2
564,2,2,2,2,6
565,2,2,2,2,2
566,2,2,2,2,8
567,2,2,2,2,2
568,2,2,4,2,2
569,2,2,2,2,4
570,2,2,2,2,2
571,2,2,2,2,2
572,2,2,2,2,2
573,2,2,2,2,2
574,2,2,2,2,8
575,2,2,2,2,2
576,2,2,2,2,2
577,2,2,2,2,2
578,2,2,2,2,4
579,2,2,2,2,2
580,2,2,2,4,2
581,2,4,2,2,2
582,2,2,2,4,2
583,2,2,2,2,4
584,2,2,2,2,4
585,2,2,2,2,12
586,2,2,2,2,2
587,2,2,2,2,4
588,2,2,2,2,2
589,2,2,2,4,4
590,2,2,2,2,2
591,2,2,4,4,2
592,2,2,2,4,6
593,2,2,2,2,2
594,2,2,2,2,4
595,2,2,2,2,4
596,2,2,2,4,4
597,2,2,2,2,8
598,2,2,2,4,2
599,2,2,2,2,2
600,2,2,2,2,2
601,2,2,2,2,4
602,2,2,2,2,2
603,2,2,2,2,2
604,2,2,2,2,2
605,2,2,2,2,2
606,2,2,2,2,4
607,2,2,2,2,2
608,2,2,2,2,2
609,2,2,2,2,6
610,2,2,2,2,4
611,2,2,2,2,4
612,2,2,2,2,2
613,2,2,4,2,2
614,2,2,4,2,6
615,2,2,4,2,4
616,2,2,2,2,4
617,2,2,4,4,4
618,2,2,2,2,6
619,2,2,2,4,6
620,2,2,2,2,4
621,2,2,2,2,6
622,2,2,2,2,10
623,2,2,2,2,2
624,2,2,2,2,2
625,2,2,2,4,2
626,2,2,2,2,2
627,2,4,2,2,4
628,2,2,2,2,2
629,2,2,2,2,4
630,2,2,8,2,2
631,2,2,2,2,2
632,2,2,2,2,2
633,2,2,4,2,2
634,2,2,2,4,2
635,2,2,2,2,4
636,2,2,2,2,4
637,2,2,2,2,2
638,2,2,2,2,8
639,2,2,2,2,2
640,2,2,2,4,2
641,2,2,2,4,6
642,2,2,2,2,6
643,2,2,2,4,2
644,2,2,2,6,2
645,2,2,2,2,6
646,2,2,2,2,4
647,2,2,2,2,2
648,2,2,4,2,2
649,2,2,2,6,4
650,2,2,4,2,2
651,2,2,4,2,2
652,2,2,2,2,2
653,2,2,2,2,6
654,2,2,2,4,2
655,2,2,2,2,2
656,2,2,2,2,2
657,2,2,2,2,2
658,2,2,2,2,2
659,2,2,2,4,4
660,2,2,2,2,2
661,2,2,2,4,2
662,2,2,2,2,2
663,2,2,2,2,4
664,2,2,2,2,2
665,2,2,2,2,4
666,2,2,2,2,4
667,2,2,2,2,2
668,2,2,2,8,4
669,2,2,2,2,2
670,2,2,2,4,2
671,2,2,2,4,6
672,2,2,2,2,2
673,2,2,2,2,4
674,2,2,2,2,2
675,2,2,2,4,2
676,2,2,2,2,2
677,2,2,2,2,2
678,2,4,2,2,6
679,2,2,2,2,2
680,2,2,2,2,10
681,2,2,2,2,6
682,2,2,2,4,2
683,2,2,6,2,4
684,2,2,2,4,2
685,2,2,2,2,8
686,2,2,2,4,4
687,2,2,2,2,2
688,2,2,2,2,2
689,2,2,4,2,6
690,2,2,2,2,2
691,2,2,2,2,2
692,2,2,2,2,6
693,2,2,2,2,2
694,2,2,2,2,4
695,2,2,2,2,2
696,2,2,2,2,4
697,2,2,2,8,4
698,2,2,2,6,2
699,2,2,2,4,2
700,2,2,2,2,6
701,2,2,2,2,4
702,2,2,2,2,8
703,2,2,2,2,4
704,2,2,2,2,6
705,2,2,6,2,4
706,2,2,2,2,6
707,2,2,2,2,4
708,2,2,4,2,2
709,2,2,2,2,2
710,2,2,2,2,4
711,2,2,2,2,4
712,2,2,2,2,2
713,2,2,2,2,2
714,2,2,2,6,2
715,2,2,2,2,2
716,2,2,2,2,6
717,2,2,2,2,2
718,2,2,2,2,4
719,2,2,2,4,6
720,2,2,4,2,2
721,2,2,2,2,12
722,2,2,2,4,2
723,2,2,2,2,4
724,2,2,2,2,2
725,2,2,2,4,2
726,2,2,2,2,4
727,2,2,2,2,2
728,2,2,2,6,4
729,2,2,6,4,2
730,2,2,4,2,4
731,2,2,2,4,4
732,2,2,2,2,4
733,2,2,2,2,2
734,2,2,2,2,2
735,2,2,2,2,4
736,2,2,4,2,2
737,2,2,2,2,2
738,2,2,2,2,6
739,2,4,2,2,6
740,2,2,2,2,2
741,2,2,4,4,8
742,2,2,2,2,4
743,2,2,2,2,2
744,2,4,2,2,4
745,2,2,2,2,4
746,2,2,2,2,2
747,2,2,2,4,2
748,2,2,2,2,14
749,2,2,2,2,10
750,2,2,2,2,6
751,2,2,2,6,2
752,2,2,2,2,4
753,2,2,2,4,2
754,2,2,2,8,2
755,2,2,4,2,4
756,2,2,2,4,2
757,2,2,2,6,2
758,2,2,2,2,4
759,2,2,2,2,2
760,2,2,2,2,6
761,2,2,2,4,4
762,2,2,2,2,2
763,2,2,2,2,2
764,2,2,2,2,4
765,2,2,2,2,2
766,2,2,2,2,2
767,2,2,2,2,2
768,2,2,2,2,4
769,2,2,2,2,2
770,2,2,2,4,10
771,2,2,2,2,10
772,2,2,2,2,4
773,2,2,2,2,2
774,2,2,2,2,4
775,2,2,2,2,6
776,2,2,2,4,2
777,2,2,6,2,4
778,2,2,2,2,2
779,2,2,2,2,2
780,2,2,2,4,2
781,2,2,2,6,2
782,2,2,2,2,2
783,2,2,2,2,2
784,2,2,2,2,2
785,2,2,4,2,8
786,2,2,2,4,2
787,2,2,2,2,4
788,2,2,2,4,4
789,2,2,2,4,8
790,2,2,2,2,2
791,2,2,2,2,2
792,2,2,2,2,12
793,2,2,2,2,2
794,2,2,2,2,4
795,2,2,2,2,2
796,2,2,2,4,4
797,2,2,2,2,6
798,2,2,4,2,2
799,2,2,2,4,2
800,2,2,2,2,2
801,2,2,4,4,2
802,2,2,2,4,2
803,2,2,2,2,2
804,2,2,2,2,2
805,2,2,2,2,8
806,2,2,2,4,4
807,2,2,2,2,2
808,2,2,2,2,6
809,2,2,2,4,4
810,2,2,2,2,2
811,2,2,2,2,2
812,2,2,2,2,2
813,2,2,2,2,2
814,2,2,2,4,2
815,2,2,2,2,2
816,2,2,2,2,4
817,2,2,2,2,4
818,2,2,2,2,4
819,2,2,2,2,4
820,2,2,2,2,2
821,2,2,2,2,2
822,2,2,2,2,8
823,2,2,2,2,4
824,2,2,2,2,8
825,2,2,2,2,4
826,2,2,2,2,2
827,2,2,2,4,2
828,2,2,2,4,6
829,2,2,2,2,2
830,2,2,2,4,2
831,2,2,2,4,2
832,2,2,2,2,6
833,2,2,2,2,4
834,2,2,2,2,2
835,2,2,2,2,2
836,2,2,2,2,2
837,2,2,2,2,2
838,2,2,2,2,14
839,2,2,4,4,4
840,2,2,2,2,2
841,2,4,2,2,2
842,2,2,2,2,2
843,2,2,2,2,4
844,2,2,2,2,2
845,2,2,2,2,2
846,2,2,2,2,2
847,2,2,4,2,4
848,2,2,2,2,2
849,2,2,2,4,4
850,2,2,4,2,4
851,2,2,2,2,4
852,2,2,2,2,4
853,2,2,2,2,2
854,2,2,2,2,6
855,2,2,2,2,2
856,2,2,2,6,2
857,2,2,2,2,2
858,2,2,2,2,6
859,2,2,2,2,4
860,2,2,2,2,2
861,2,2,2,2,2
862,2,2,4,8,4
863,2,2,2,2,4
864,2,2,2,2,8
865,2,2,2,2,4
866,2,2,2,2,2
867,2,2,2,2,2
868,2,2,2,2,4
869,2,2,2,2,6
870,2,2,2,4,2
871,2,2,2,4,4
872,2,2,2,2,2
873,2,2,2,2,6
874,2,2,2,2,6
875,2,2,2,2,4
876,2,2,2,2,2
877,2,2,2,2,2
878,2,2,2,2,2
879,2,2,2,4,2
880,2,2,2,2,2
881,2,2,2,2,4
882,2,2,2,2,4
883,2,2,2,2,2
884,2,2,2,4,2
885,2,2,2,2,4
886,2,2,2,2,4
887,2,2,2,2,10
888,2,2,2,2,2
889,2,2,2,4,2
890,2,2,2,2,4
891,2,2,2,2,6
892,2,2,2,2,2
893,2,2,2,2,4
894,2,2,2,2,2
895,2,2,2,2,6
896,2,2,2,2,2
897,2,2,2,2,4
898,2,2,2,2,2
899,2,2,2,2,2
900,2,2,2,4,2
901,2,2,2,2,2
902,2,2,2,4,2
903,2,2,2,2,4
904,2,2,2,2,6
905,2,2,2,4,4
906,2,2,2,2,4
907,2,2,2,4,2
908,2,2,2,2,8
909,2,2,2,4,2
910,2,2,2,2,2
911,2,2,2,2,6
912,2,2,2,2,2
913,2,2,2,2,2
914,2,2,2,2,4
915,2,2,2,2,2
916,2,2,2,4,2
917,2,2,2,4,2
918,2,2,2,2,4
919,2,2,2,2,6
920,2,2,2,2,4
921,2,2,2,2,2
922,2,2,2,2,4
923,2,2,2,2,2
924,2,2,2,2,4
925,2,2,2,2,2
926,2,2,2,2,4
927,2,2,2,4,2
928,2,2,4,2,2
929,2,2,2,2,4
930,2,2,2,2,2
931,2,2,2,4,4
932,2,2,2,2,6
933,2,2,4,2,2
934,2,2,2,2,2
935,2,2,2,2,2
936,2,2,2,4,2
937,2,2,2,4,2
938,2,2,2,2,4
939,2,2,2,2,2
940,2,2,2,2,6
941,2,2,2,4,2
942,2,2,2,4,2
943,2,2,2,2,2
944,2,2,2,2,4
945,2,2,2,2,2
946,2,2,2,4,2
947,2,2,2,4,2
948,2,2,2,2,2
949,2,2,2,2,4
950,2,2,2,2,2
951,2,2,2,2,2
952,2,2,4,6,12
953,2,2,2,2,2
954,2,2,4,2,2
955,2,2,2,2,2
956,2,2,2,2,2
957,2,2,2,2,4
958,2,2,2,2,2
959,2,2,2,6,2
960,2,2,2,2,2
961,2,2,2,2,2
962,2,2,2,2,4
963,2,2,2,2,2
964,2,2,2,2,2
965,2,2,2,2,4
966,2,2,4,2,12
967,2,2,2,2,2
968,2,2,2,2,2
969,2,2,4,2,2
970,2,2,2,2,4
971,2,2,2,2,2
972,2,2,2,2,2
973,2,2,4,6,4
974,2,2,2,2,4
975,2,2,2,2,4
976,2,2,2,2,2
977,2,2,2,2,6
978,2,2,2,2,2
979,2,2,2,2,2
980,2,2,2,2,4
981,2,2,2,4,4
982,2,2,2,2,6
983,2,2,2,2,2
984,2,2,2,2,6
985,2,2,2,2,2
986,2,2,2,2,2
987,2,2,2,2,4
988,2,2,2,2,2
989,2,2,2,4,2
990,2,2,2,2,6
991,2,2,2,6,6
992,2,2,4,2,2
993,2,2,2,2,2
994,2,2,2,2,4
995,2,2,2,2,2
996,2,2,4,2,2
997,2,2,2,2,2
998,2,2,2,2,4
999,2,2,2,2,2
