[and(p,not(or(q,r)))].

or(and(p,q),and(p,r)).

[
    [1, and(p,not(or(q,r))), premise],
    [2, p, andel1(1)],
    [3, not(or(q,r)), andel2(1)],
    [
        [4, q, assumption],
        [5, and(p,q), andint(2,4)],
        [6, or(and(p,q),and(p,r)), orint1(5)]
    ],
    [
        [7, r, assumption],
        [8, and(p,r), andint(2,7)],
        [9, or(and(p,q),and(p,r)), orint2(8)]
    ],
    [10, or(and(p,q),and(p,r)), orel(3,4,6,7,9)]
].
