auction_id,avg
1,536.0
3,361.0
4,396.75
5,406.6
6,413.5
7,419.2857142857143
8,422.625
9,431.44444444444446
10,442.9
11,453.09090909090907
12,458.3333333333333
13,461.38461538461536
14,467.7857142857143
15,465.06666666666666
16,469.75
17,470.0
18,463.77777777777777
19,468.63157894736844
20,468.75
21,470.23809523809524
22,470.40909090909093
23,472.4782608695652
24,472.2083333333333
25,475.08
26,477.65384615384613
27,470.6296296296296
28,470.89285714285717
29,473.2758620689655
30,475.43333333333334
31,475.1290322580645
32,476.90625
33,479.3939393939394
34,481.52941176470586
36,470.1666666666667
37,471.86486486486484
38,470.42105263157896
39,472.64102564102564
40,474.525
41,472.2682926829268
43,461.0232558139535
45,452.3777777777778
46,452.6304347826087
47,452.1489361702128
48,452.1458333333333
49,454.1020408163265
50,453.32
51,454.94117647058823
52,454.86538461538464
53,456.0188679245283
54,457.7962962962963
55,457.3818181818182
56,455.4107142857143
57,452.2631578947368
58,452.7068965517241
59,452.91525423728814
60,452.21666666666664
62,444.8225806451613
64,438.0625
65,437.3538461538462
66,437.969696969697
67,439.53731343283584
68,436.97058823529414
69,437.82608695652175
70,438.24285714285713
71,437.98591549295776
72,438.7638888888889
73,440.05479452054794
74,441.7162162162162
75,442.81333333333333
76,443.80263157894734
77,445.05194805194805
78,444.1666666666667
79,444.44303797468353
80,444.875
81,444.14814814814815
82,444.9634146341463
83,446.2409638554217
84,447.54761904761904
85,447.8
86,447.80232558139534
87,448.8045977011494
88,447.6136363636364
89,447.8426966292135
90,448.68888888888887
92,444.9347826086956
93,445.752688172043
95,441.58947368421053
96,441.4375
97,442.64948453608247
98,443.3775510204082
99,444.4141414141414
100,445.34
101,446.2772277227723
102,447.55882352941177
104,443.40384615384613
105,444.1142857142857
106,444.6698113207547
107,446.04672897196264
108,445.31481481481484
109,446.57798165137615
110,447.06363636363636
111,447.54954954954957
112,448.79464285714283
113,448.7079646017699
114,449.5964912280702
115,450.3478260869565
116,450.91379310344826
117,451.2649572649573
118,451.70338983050846
119,452.12605042016804
120,452.6166666666667
121,453.3057851239669
124,446.60483870967744
125,445.608
126,446.1984126984127
127,446.6692913385827
128,447.421875
129,448.31007751937983
130,448.3538461538462
131,449.4732824427481
132,449.1136363636364
133,448.7368421052632
134,449.0970149253731
135,449.74074074074076
136,449.5147058823529
137,450.02919708029196
138,450.9855072463768
139,451.66187050359713
140,451.82142857142856
141,452.20567375886526
142,452.77464788732397
144,450.1111111111111
145,450.0344827586207
146,449.2945205479452
147,449.04761904761904
148,449.68918918918916
149,449.9463087248322
150,450.31333333333333
151,450.9139072847682
152,450.54605263157896
154,448.04545454545456
157,442.68152866242036
158,442.72151898734177
159,443.38993710691824
160,443.5875
161,444.14285714285717
162,444.9012345679012
163,444.97546012269936
164,444.6280487804878
165,445.08484848484846
166,444.9759036144578
167,445.4071856287425
168,445.5297619047619
169,445.92899408284023
170,446.4823529411765
173,441.5086705202312
174,441.88505747126436
175,442.0514285714286
176,442.15340909090907
177,442.3954802259887
178,442.4719101123595
179,442.92737430167597
180,442.69444444444446
181,443.1546961325967
182,443.8901098901099
183,443.8469945355191
184,444.41847826086956
185,444.64324324324326
186,444.96774193548384
188,442.7659574468085
189,442.8095238095238
190,442.0263157894737
191,441.89005235602093
192,442.2291666666667
193,442.81865284974094
194,443.3144329896907
195,443.45641025641027
196,442.88775510204084
197,443.492385786802
198,443.7676767676768
199,444.10552763819095
200,444.745
201,443.67164179104475
202,443.0990099009901
203,443.6009852216749
204,444.02941176470586
206,441.8543689320388
207,442.0096618357488
209,439.60765550239233
210,440.15238095238095
211,440.5687203791469
212,441.04716981132077
213,441.6056338028169
214,441.4252336448598
215,441.6279069767442
216,441.99074074074076
217,441.7695852534562
218,441.70642201834863
219,441.6986301369863
220,442.4045454545454
221,442.552036199095
222,442.60360360360363
223,442.21973094170403
224,442.6919642857143
225,443.0755555555556
227,441.2599118942731
228,441.39912280701753
229,441.6157205240175
230,442.1521739130435
231,442.4415584415584
233,441.15021459227466
234,441.2008547008547
235,441.22127659574465
236,441.8601694915254
237,442.38396624472574
238,442.8487394957983
239,443.25941422594144
240,443.67083333333335
242,442.3347107438017
243,442.93415637860085
244,442.1311475409836
245,441.8979591836735
246,442.3617886178862
247,442.7773279352227
248,443.2258064516129
249,443.1164658634538
250,443.608
251,443.8884462151394
252,444.468253968254
253,444.5810276679842
254,444.18503937007875
255,444.4823529411765
256,444.7421875
257,444.591439688716
258,444.86821705426354
259,445.2200772200772
261,443.2068965517241
262,443.5229007633588
264,442.03409090909093
265,441.8943396226415
266,442.01503759398497
267,441.74531835205994
268,442.07835820895525
269,442.2267657992565
270,442.14444444444445
272,440.8639705882353
273,440.4102564102564
274,440.37226277372264
275,440.5090909090909
276,440.59420289855075
277,440.7039711191336
278,441.0431654676259
279,441.2544802867383
280,441.775
282,440.70212765957444
283,440.8621908127208
284,441.03169014084506
285,441.080701754386
286,440.9125874125874
287,441.3867595818815
288,441.56944444444446
289,441.61245674740485
290,441.548275862069
291,441.49828178694156
292,441.3321917808219
293,441.67235494880543
294,442.05442176870747
295,442.04745762711866
296,442.5168918918919
297,442.66329966329965
298,443.0402684563758
300,441.8333333333333
301,441.8139534883721
302,442.21854304635764
303,442.55775577557756
305,441.1475409836066
306,440.9477124183006
307,441.11726384364823
308,441.3474025974026
309,441.2621359223301
310,441.48709677419356
311,441.7556270096463
312,442.0544871794872
313,442.24281150159743
314,442.64649681528664
315,442.79047619047617
316,442.9620253164557
317,443.2365930599369
318,443.311320754717
319,443.2382445141066
320,443.15625
322,442.05900621118013
323,442.4520123839009
324,442.76234567901236
325,442.8553846153846
326,443.1411042944785
327,443.4464831804281
328,443.7713414634146
329,443.7142857142857
331,442.3081570996979
333,441.2942942942943
334,441.69161676646706
335,441.9134328358209
336,442.13988095238096
337,442.3382789317507
338,442.71597633136093
339,442.8938053097345
340,442.8529411764706
341,443.158357771261
342,443.2690058479532
343,443.5276967930029
344,443.6918604651163
345,443.60869565217394
346,443.7976878612717
347,444.0662824207493
348,443.7298850574713
349,444.0888252148997
350,444.22
351,444.25925925925924
352,444.51704545454544
353,444.6543909348442
354,444.65819209039546
355,444.9887323943662
356,444.935393258427
357,445.02240896358546
358,445.1368715083799
359,445.4401114206128
360,445.3833333333333
362,444.34806629834253
363,444.1873278236915
364,444.4945054945055
365,444.6849315068493
366,444.57650273224044
367,444.4768392370572
369,443.58265582655827
370,443.44594594594594
371,443.69272237196765
372,443.244623655914
373,443.171581769437
374,443.47860962566847
375,443.4746666666667
376,443.73936170212767
377,443.973474801061
378,444.1587301587302
379,444.2664907651715
380,444.36578947368423
381,444.62204724409446
382,444.63612565445027
383,444.8668407310705
384,444.78125
385,444.3766233766234
386,444.30829015544043
388,442.64690721649487
389,442.8457583547558
390,442.92820512820515
391,443.18158567774935
392,443.4795918367347
393,443.30788804071244
394,443.4568527918782
395,443.4151898734177
396,443.6969696969697
397,443.65491183879095
398,443.65577889447235
399,443.9172932330827
400,443.9775
401,444.0074812967581
402,444.32089552238807
403,444.4863523573201
404,444.69554455445547
406,443.88669950738915
407,444.16953316953317
408,444.0147058823529
409,443.4132029339853
410,443.64146341463413
411,443.6155717761557
412,443.8009708737864
414,442.4710144927536
415,442.70602409638553
416,442.5432692307692
417,442.6115107913669
419,441.7708830548926
420,441.3952380952381
421,441.35154394299286
422,441.28909952606637
423,441.0756501182033
424,441.14858490566036
425,441.1411764705882
426,441.48826291079814
427,441.73302107728335
428,441.8224299065421
429,442.08857808857806
430,441.88837209302324
432,440.91898148148147
434,440.2442396313364
435,440.5310344827586
436,440.67201834862385
437,440.8741418764302
438,440.82191780821915
440,439.89772727272725
441,439.95238095238096
443,439.1354401805869
444,439.3265765765766
445,439.00898876404494
446,438.9529147982063
447,439.2281879194631
448,438.99776785714283
449,439.1893095768374
450,439.2088888888889
451,439.4478935698448
452,439.77433628318585
453,439.8587196467991
454,440.1740088105727
455,440.48571428571427
456,440.57675438596493
457,440.7680525164114
458,440.9868995633188
459,441.1503267973856
460,441.30652173913046
461,441.53145336225595
462,441.7012987012987
463,441.7624190064795
465,441.1333333333333
466,441.10729613733906
467,441.35546038543896
468,441.491452991453
469,441.590618336887
470,441.82978723404256
471,441.9872611464968
473,441.38054968287526
474,441.0168776371308
476,440.2310924369748
477,440.34591194968556
478,440.35564853556485
479,440.3444676409186
480,440.6125
481,440.8128898128898
482,440.9792531120332
485,439.4329896907216
486,439.67283950617286
487,439.53388090349074
488,439.7581967213115
489,439.8118609406953
490,440.069387755102
491,440.0794297352342
492,440.2926829268293
493,440.5679513184584
494,440.69635627530363
495,440.8363636363636
496,441.0846774193548
497,441.3460764587525
498,441.34939759036143
499,441.26653306613224
500,441.54
501,441.6666666666667
502,441.75099601593627
503,441.9324055666004
504,442.1507936507937
505,442.36633663366337
506,442.49407114624506
507,442.48915187376724
508,442.45669291338584
509,442.63064833005893
510,442.7156862745098
511,442.71232876712327
512,442.8671875
513,443.0662768031189
514,443.14980544747084
515,443.3631067961165
516,443.52713178294573
517,443.6673114119923
518,443.85714285714283
519,443.8265895953757
520,443.55384615384617
521,443.6756238003839
522,443.7241379310345
523,443.8757170172084
524,443.92748091603056
525,444.0495238095238
527,442.9051233396584
530,441.2830188679245
531,441.52730696798494
533,440.84803001876173
534,440.812734082397
535,440.9906542056075
537,440.37616387337056
538,439.95910780669146
540,438.9537037037037
541,439.0388170055453
542,439.0405904059041
543,439.17863720073666
545,438.54128440366975
546,438.6007326007326
547,438.85740402193784
549,437.8633879781421
550,437.96
551,438.08892921960074
552,438.22463768115944
554,437.6606498194946
555,437.6630630630631
556,437.66187050359713
557,437.83662477558346
558,438.02867383512546
559,438.0840787119857
560,438.3178571428571
561,438.5579322638146
562,438.7775800711744
563,438.75666074600355
564,438.93971631205676
565,439.15575221238936
566,439.3286219081272
567,439.3968253968254
568,439.5
569,439.59050966608083
571,439.0262697022767
572,439.2167832167832
573,439.13961605584643
574,439.0993031358885
576,438.44965277777777
577,438.5528596187175
578,438.7370242214533
579,438.81692573402415
580,438.97758620689655
581,438.8657487091222
582,438.9639175257732
583,439.1526586620926
584,439.1763698630137
585,439.3299145299145
586,439.4744027303754
588,438.91156462585036
589,439.0611205432937
590,439.11694915254236
591,439.0592216582064
592,439.1756756756757
593,439.1905564924115
594,439.38047138047136
595,439.5344537815126
598,438.24581939799333
599,438.3238731218698
600,438.42333333333335
601,438.47920133111484
602,438.66777408637876
603,438.6268656716418
604,438.72350993377484
605,438.75371900826445
606,438.84323432343234
607,438.8813838550247
608,439.10032894736844
609,439.2463054187192
610,439.3983606557377
611,439.53846153846155
612,439.7091503267974
613,439.85481239804244
614,440.0309446254072
615,440.2048780487805
616,440.3051948051948
617,440.3824959481361
618,440.6084142394822
620,439.98387096774195
621,440.1561996779388
623,439.6292134831461
624,439.47435897435895
625,439.52
626,439.6549520766773
627,439.42424242424244
628,439.36942675159236
629,439.6120826709062
630,439.747619047619
631,439.6259904912837
632,439.7626582278481
