\relax 
\bibstyle{biblatex}
\bibdata{projectreport-blx,refs}
\citation{biblatex-control}
\abx@aux@refcontext{none/global//global/global}
\@writefile{toc}{\boolfalse {citerequest}\boolfalse {citetracker}\boolfalse {pagetracker}\boolfalse {backtracker}\relax }
\@writefile{lof}{\boolfalse {citerequest}\boolfalse {citetracker}\boolfalse {pagetracker}\boolfalse {backtracker}\relax }
\@writefile{lot}{\boolfalse {citerequest}\boolfalse {citetracker}\boolfalse {pagetracker}\boolfalse {backtracker}\relax }
\citation{dvir03}
\abx@aux@cite{dvir03}
\abx@aux@segm{0}{0}{dvir03}
\citation{kniberg07}
\abx@aux@cite{kniberg07}
\abx@aux@segm{0}{0}{kniberg07}
\citation{kniberg07}
\abx@aux@segm{0}{0}{kniberg07}
\citation{miraplan18}
\abx@aux@cite{miraplan18}
\abx@aux@segm{0}{0}{miraplan18}
\citation{wikiagilead18}
\abx@aux@cite{wikiagilead18}
\abx@aux@segm{0}{0}{wikiagilead18}
\citation{privatecompany}
\abx@aux@cite{privatecompany}
\abx@aux@segm{0}{0}{privatecompany}
\@writefile{toc}{\defcounter {refsection}{0}\relax }\@writefile{toc}{\contentsline {section}{\numberline {1}Introduction}{2}}
\@writefile{toc}{\defcounter {refsection}{0}\relax }\@writefile{toc}{\contentsline {section}{\numberline {2}Background}{2}}
\@writefile{toc}{\defcounter {refsection}{0}\relax }\@writefile{toc}{\contentsline {subsection}{\numberline {2.1}Traditional Development Planning Methods}{2}}
\@writefile{toc}{\defcounter {refsection}{0}\relax }\@writefile{toc}{\contentsline {subsection}{\numberline {2.2}Modern or agile Software Development Planning Methods}{2}}
\citation{mirapract18}
\abx@aux@cite{mirapract18}
\abx@aux@segm{0}{0}{mirapract18}
\citation{mirapract18}
\abx@aux@segm{0}{0}{mirapract18}
\citation{wikipractise18}
\abx@aux@cite{wikipractise18}
\abx@aux@segm{0}{0}{wikipractise18}
\@writefile{toc}{\defcounter {refsection}{0}\relax }\@writefile{toc}{\contentsline {subsection}{\numberline {2.3}Traditional vs Agile software Planning}{3}}
\newlabel{waPrac}{{2.4}{3}}
\@writefile{toc}{\defcounter {refsection}{0}\relax }\@writefile{toc}{\contentsline {subsection}{\numberline {2.4}What are Practices?}{3}}
\@writefile{toc}{\defcounter {refsection}{0}\relax }\@writefile{toc}{\contentsline {subsection}{\numberline {2.5}Common Practices}{3}}
\citation{SumoDash}
\abx@aux@cite{SumoDash}
\abx@aux@segm{0}{0}{SumoDash}
\citation{kniberg07}
\abx@aux@segm{0}{0}{kniberg07}
\citation{kniberg07}
\abx@aux@segm{0}{0}{kniberg07}
\citation{SumoDash}
\abx@aux@segm{0}{0}{SumoDash}
\newlabel{pk}{{2.6}{4}}
\@writefile{toc}{\defcounter {refsection}{0}\relax }\@writefile{toc}{\contentsline {subsection}{\numberline {2.6}Previous Knowledge}{4}}
\newlabel{softproj}{{2.7}{4}}
\@writefile{toc}{\defcounter {refsection}{0}\relax }\@writefile{toc}{\contentsline {subsection}{\numberline {2.7}Software Project}{4}}
\newlabel{sp}{{2.8}{4}}
\@writefile{toc}{\defcounter {refsection}{0}\relax }\@writefile{toc}{\contentsline {subsection}{\numberline {2.8}Scrum Planning}{4}}
\@writefile{toc}{\defcounter {refsection}{0}\relax }\@writefile{toc}{\contentsline {section}{\numberline {3}Research Method}{4}}
\abx@aux@refcontextdefaultsdone
\abx@aux@defaultrefcontext{0}{dvir03}{none/global//global/global}
\abx@aux@defaultrefcontext{0}{kniberg07}{none/global//global/global}
\abx@aux@defaultrefcontext{0}{miraplan18}{none/global//global/global}
\abx@aux@defaultrefcontext{0}{wikiagilead18}{none/global//global/global}
\abx@aux@defaultrefcontext{0}{privatecompany}{none/global//global/global}
\abx@aux@defaultrefcontext{0}{mirapract18}{none/global//global/global}
\abx@aux@defaultrefcontext{0}{wikipractise18}{none/global//global/global}
\abx@aux@defaultrefcontext{0}{SumoDash}{none/global//global/global}
\newlabel{flowchart}{{3}{5}}
